Sentiment Analysis – Justice John Paul Stevens Authored Opinions
…
# Add a "None" flag column
results <- results %>%
  mutate(dominant_emotion = ifelse(total_emotion_hits == 0, "None", dominant_emotion))

Overall Emotional Distribution

Overview per year for all emotions

# Overview of results 
print(results %>% select(all_of(c(id_col, type_col, year_col)),
                          Belonging, Liberty, Empathy, Control,
                          Contentment, Discontentment,
                          dominant_emotion, total_emotion_hits))

## # A tibble: 255 × 11
##    file_title      subfolder  year Belonging Liberty Empathy Control Contentment
##    <chr>           <chr>     <int>     <dbl>   <dbl>   <dbl>   <dbl>       <dbl>
##  1 01 - Kraham v … Concurri…  1979     0       0       0      27.8         0    
##  2 02 - Liles v O… Concurri…  1976    22.7     0       0       0           0    
##  3 03 - Baldasar … Concurri…  1980     0       0       0       0           0    
##  4 04 - US v Jaco… Concurri…  1976     0       0       0       0           0    
##  5 05 - Burrell v… Concurri…  1976     9.68    0       0       6.45       12.9  
##  6 06 - Duke Powe… Concurri…  1978     0.412   0.471   0.294   0.707       0.765
##  7 07 - Drake v Z… Concurri…  1980     3.27    1.64    1.64    0           6.55 
##  8 08 - Arizona v… Concurri…  1976     1.28    0.855   1.71    1.28        0.855
##  9 09 - Goldwater… Concurri…  1979     0       0       0       0           0    
## 10 10 - Secretary… Concurri…  1979     0       0       0       0           0    
## # ℹ 245 more rows
## # ℹ 3 more variables: Discontentment <dbl>, dominant_emotion <chr>,
## #   total_emotion_hits <int>
…
Emotions by Year

Dominant Emotion by Year

# results for dominant emotion by year
results_yr <- results %>% filter(!is.na(case_year))
emotion_by_year <- results_yr %>%
  group_by(case_year, dominant_emotion) %>%
  summarise(count = n(), .groups = "drop") %>%
  group_by(case_year) %>%
  mutate(percent = count / sum(count) * 100)
print(emotion_by_year)

## # A tibble: 26 × 4
## # Groups:   case_year [5]
##    case_year dominant_emotion count percent
##        <int> <chr>            <int>   <dbl>
##  1      1976 Belonging            3    7.14
##  2      1976 Contentment          3    7.14
##  3      1976 Control              5   11.9 
##  4      1976 Empathy              2    4.76
##  5      1976 Liberty              2    4.76
##  6      1976 None                27   64.3 
##  7      1977 Belonging            3    5.36
##  8      1977 Contentment          7   12.5 
##  9      1977 Control              8   14.3 
## 10      1977 Empathy              1    1.79
## # ℹ 16 more rows
…
